…
The most important choices for the user are: year (2016 is the latest
census year currently available), language (english or french) and
geo\_code/geo\_level. A list of geo codes and geo levels are given in
the `code_book` dataset:

``` r
dplyr::filter(code_book, code_type == "geo_level")
#> # A tibble: 34 x 3
#>    code_type code  code_desc                                        
#>    <chr>     <chr> <chr>                                            
#>  1 geo_level pr_   province and territory                           
#>  2 geo_level cd_   census division                                  
#>  3 geo_level ccs   census consolidated subdivision                  
#>  4 geo_level csd   census subdivision                               
#>  5 geo_level er_   economic region                                  
#>  6 geo_level cma   census metropolitan area and census agglomeration
#>  7 geo_level fed   federal electoral district                       
#>  8 geo_level ct_   census tract                                     
#>  9 geo_level dpl   designated place                                 
#> 10 geo_level pc_   population centre                                
#> # … with 24 more rows
```
…
